Exploratory Data Analysis in R
…
Instructions

Load the dplyr package.

Print the votes table.

Filter out rows where the vote recorded is not present or not a member, leaving cases where it is yes, abstain, or no.

# Load the dplyr package
library(dplyr)

# Print the votes dataset
votes

## # A tibble: 508,929 x 4
##     rcid session  vote ccode
##    <dbl>   <dbl> <dbl> <int>
##  1    46       2     1     2
##  2    46       2     1    20
##  3    46       2     9    31
##  4    46       2     1    40
##  5    46       2     1    41
##  6    46       2     1    42
##  7    46       2     9    51
##  8    46       2     9    52
##  9    46       2     9    53
## 10    46       2     9    54
## # ... with 508,919 more rows

# Filter for votes that are "yes", "abstain", or "no"
votes %>%
  filter(vote <= 3)

## # A tibble: 353,547 x 4
##     rcid session  vote ccode
##    <dbl>   <dbl> <dbl> <int>
##  1    46       2     1     2
##  2    46       2     1    20
##  3    46       2     1    40
##  4    46       2     1    41
##  5    46       2     1    42
##  6    46       2     1    70
##  7    46       2     1    90
##  8    46       2     1    91
##  9    46       2     1    92
## 10    46       2     1    93
## # ... with 353,537 more rows
…
The next step of data cleaning is manipulating your variables (columns) to make them more informative.

In this case, you have a session column that is hard to interpret intuitively. But since the UN started voting in 1946, and holds one session per year, you can get the year of a UN resolution by adding 1945 to the session number.

Instructions

Use mutate() to add a year column by adding 1945 to the session column.

# Add another %>% step to add a year column
votes %>%
  filter(vote <= 3) %>%
  mutate(year = session + 1945)

## # A tibble: 353,547 x 5
##     rcid session  vote ccode  year
##    <dbl>   <dbl> <dbl> <int> <dbl>
##  1    46       2     1     2  1947
##  2    46       2     1    20  1947
##  3    46       2     1    40  1947
##  4    46       2     1    41  1947
##  5    46       2     1    42  1947
##  6    46       2     1    70  1947
##  7    46       2     1    90  1947
##  8    46       2     1    91  1947
##  9    46       2     1    92  1947
## 10    46       2     1    93  1947
## # ... with 353,537 more rows
…
## [1] "Colombia"

# Add a country column within the mutate: votes_processed
votes_processed <- votes %>%
  filter(vote <= 3) %>%
  mutate(
    year = session + 1945,
    country = countrycode(ccode, "cown", "country.name"),
    country = recode(country, 
                     'United States of America' =  'United States',
                     'United Kingdom of Great Britain and Northern Ireland' = 'United Kingdom')
  )
votes_processed

## # A tibble: 353,547 x 6
##     rcid session  vote ccode  year country           
##    <dbl>   <dbl> <dbl> <int> <dbl> <chr>             
##  1    46       2     1     2  1947 United States     
##  2    46       2     1    20  1947 Canada            
##  3    46       2     1    40  1947 Cuba              
##  4    46       2     1    41  1947 Haiti             
##  5    46       2     1    42  1947 Dominican Republic
##  6    46       2     1    70  1947 Mexico            
##  7    46       2     1    90  1947 Guatemala         
##  8    46       2     1    91  1947 Honduras          
##  9    46       2     1    92  1947 El Salvador       
## 10    46       2     1    93  1947 Nicaragua         
## # ... with 353,537 more rows
…
Instructions

Print the votes_processed dataset that you created in the previous exercise.

Summarize the dataset using the summarize() function to create two columns:

total: with the number of votes

percent_yes: the percentage of yes votes

# Print votes_processed
votes_processed

## # A tibble: 353,547 x 6
##     rcid session  vote ccode  year country           
##    <dbl>   <dbl> <dbl> <int> <dbl> <chr>             
##  1    46       2     1     2  1947 United States     
##  2    46       2     1    20  1947 Canada            
##  3    46       2     1    40  1947 Cuba              
##  4    46       2     1    41  1947 Haiti             
##  5    46       2     1    42  1947 Dominican Republic
##  6    46       2     1    70  1947 Mexico            
##  7    46       2     1    90  1947 Guatemala         
##  8    46       2     1    91  1947 Honduras          
##  9    46       2     1    92  1947 El Salvador       
## 10    46       2     1    93  1947 Nicaragua         
## # ... with 353,537 more rows
…
The summarize() function is especially useful because it can be used within groups.

For example, you might like to know how much the average agreeableness of countries changed from year to year. To examine this, you can use group_by() to perform your summary not for the entire dataset, but within each year.

Instructions

Add a group_by() to your code to summarize() within each year.

# Change this code to summarize by year
votes_processed %>%
  group_by(year) %>%
  summarize(total = n(),
            percent_yes = mean(vote == 1))

## # A tibble: 34 x 3
##     year total percent_yes
##    <dbl> <int>       <dbl>
##  1  1947  2039       0.569
##  2  1949  3469       0.438
##  3  1951  1434       0.585
##  4  1953  1537       0.632
##  5  1955  2169       0.695
##  6  1957  2708       0.609
##  7  1959  4326       0.588
##  8  1961  7482       0.573
##  9  1963  3308       0.729
## 10  1965  4382       0.708
## # ... with 24 more rows
…
In the last exercise, you performed a summary of the votes within each year. You could instead summarize() within each country, which would let you compare voting patterns between countries.

Instructions

Change the code in the editor to summarize() within each country rather than within each year. Save the result as by_country.

# Summarize by country: by_country
by_country <- votes_processed %>%
  group_by(country) %>%
  summarize(total = n(),
            percent_yes = mean(vote == 1))

by_country

## # A tibble: 200 x 3
##    country           total percent_yes
##    <chr>             <int>       <dbl>
##  1 Afghanistan        2373       0.859
##  2 Albania            1695       0.717
##  3 Algeria            2213       0.899
##  4 Andorra             719       0.638
##  5 Angola             1431       0.924
##  6 Antigua & Barbuda  1302       0.912
##  7 Argentina          2553       0.768
##  8 Armenia             758       0.747
##  9 Australia          2575       0.557
## 10 Austria            2389       0.622
## # ... with 190 more rows
…
Use arrange() to sort the countries in ascending order of percent_yes.

Arrange the countries by the same variable, but in descending order.

# You have the votes summarized by country
by_country <- votes_processed %>%
  group_by(country) %>%
  summarize(total = n(),
            percent_yes = mean(vote == 1))

# Print the by_country dataset
by_country

## # A tibble: 200 x 3
##    country           total percent_yes
##    <chr>             <int>       <dbl>
##  1 Afghanistan        2373       0.859
##  2 Albania            1695       0.717
##  3 Algeria            2213       0.899
##  4 Andorra             719       0.638
##  5 Angola             1431       0.924
##  6 Antigua & Barbuda  1302       0.912
##  7 Argentina          2553       0.768
##  8 Armenia             758       0.747
##  9 Australia          2575       0.557
## 10 Austria            2389       0.622
## # ... with 190 more rows

# Sort in ascending order of percent_yes
by_country %>%
  arrange(percent_yes)

## # A tibble: 200 x 3
##    country                          total percent_yes
##    <chr>                            <int>       <dbl>
##  1 Zanzibar                             2       0    
##  2 United States                     2568       0.269
##  3 Palau                              369       0.339
##  4 Israel                            2380       0.341
##  5 <NA>                              1075       0.397
##  6 United Kingdom                    2558       0.417
##  7 France                            2527       0.427
##  8 Micronesia (Federated States of)   724       0.442
##  9 Marshall Islands                   757       0.491
## 10 Belgium                           2568       0.492
## # ... with 190 more rows

# Now sort in descending order
by_country %>%
  arrange(desc(percent_yes))

## # A tibble: 200 x 3
##    country              total percent_yes
##    <chr>                <int>       <dbl>
##  1 So Tom & Prncipe   1091       0.976
##  2 Seychelles             881       0.975
##  3 Djibouti              1598       0.961
##  4 Guinea-Bissau         1538       0.960
##  5 Timor-Leste            326       0.957
##  6 Mauritius             1831       0.950
##  7 Zimbabwe              1361       0.949
##  8 Comoros               1133       0.947
##  9 United Arab Emirates  1934       0.947
## 10 Mozambique            1701       0.947
## # ... with 190 more rows
…
In the last exercise, you may have noticed that the country that voted least frequently, Zanzibar, had only 2 votes in the entire dataset. You certainly cant make any substantial conclusions based on that data!

Typically in a progressive analysis, when you find that a few of your observations have very little data while others have plenty, you set some threshold to filter them out.

Instructions

Use filter() to remove from the sorted data countries that have fewer than 100 votes.

# Filter out countries with fewer than 100 votes
by_country %>%
  arrange(percent_yes) %>%
  filter(total >= 100)

## # A tibble: 197 x 3
##    country                          total percent_yes
##    <chr>                            <int>       <dbl>
##  1 United States                     2568       0.269
##  2 Palau                              369       0.339
##  3 Israel                            2380       0.341
##  4 <NA>                              1075       0.397
##  5 United Kingdom                    2558       0.417
##  6 France                            2527       0.427
##  7 Micronesia (Federated States of)   724       0.442
##  8 Marshall Islands                   757       0.491
##  9 Belgium                           2568       0.492
## 10 Canada                            2576       0.508
## # ... with 187 more rows
…
Create a filtered version of the dataset called UK_by_year.

Create a line plot of the percentage of yes votes over time for the United Kingdom.

# Start with by_year_country dataset
by_year_country <- votes_processed %>%
  group_by(year, country) %>%
  summarize(total = n(),
            percent_yes = mean(vote == 1))

# Print by_year_country
by_year_country

## # A tibble: 4,744 x 4
## # Groups:   year [34]
##     year country     total percent_yes
##    <dbl> <chr>       <int>       <dbl>
##  1  1947 Afghanistan    34       0.382
##  2  1947 Argentina      38       0.579
##  3  1947 Australia      38       0.553
##  4  1947 Belarus        38       0.5  
##  5  1947 Belgium        38       0.605
##  6  1947 Bolivia        37       0.595
##  7  1947 Brazil         38       0.658
##  8  1947 Canada         38       0.605
##  9  1947 Chile          38       0.658
## 10  1947 Colombia       35       0.543
## # ... with 4,734 more rows
…
Print the US_by_year data to the console.

Using just the US data in US_by_year, use lm() to run a linear regression predicting percent_yes from year. Save this to a variable US_fit.

Summarize US_fit using the summary() function.

# Percentage of yes votes from the US by year: US_by_year
US_by_year <- by_year_country %>%
  filter(country == "United States")

# Print the US_by_year data
US_by_year

## # A tibble: 34 x 4
## # Groups:   year [34]
##     year country       total percent_yes
##    <dbl> <chr>         <int>       <dbl>
##  1  1947 United States    38       0.711
##  2  1949 United States    64       0.281
##  3  1951 United States    25       0.4  
##  4  1953 United States    26       0.5  
##  5  1955 United States    37       0.622
##  6  1957 United States    34       0.647
##  7  1959 United States    54       0.426
##  8  1961 United States    75       0.507
##  9  1963 United States    32       0.5  
## 10  1965 United States    41       0.366
## # ... with 24 more rows
…
Right now, the by_year_country data frame has one row per country-vote pair. So that you can model each country individually, youre going to nest all columns besides country, which will result in a data frame with one row per country. The data for each individual country will then be stored in a list column called data.

Instructions

Load the tidyr package.

Use the nest() function to nest all the columns in by_year_country except country.

# Load the tidyr package
library(tidyr)
# Nest all columns besides country
by_year_country %>%
  nest(-country)

## # A tibble: 200 x 2
##    country     data             
##    <chr>       <list>           
##  1 Afghanistan <tibble [34 x 3]>
##  2 Argentina   <tibble [34 x 3]>
##  3 Australia   <tibble [34 x 3]>
##  4 Belarus     <tibble [34 x 3]>
##  5 Belgium     <tibble [34 x 3]>
##  6 Bolivia     <tibble [34 x 3]>
##  7 Brazil      <tibble [34 x 3]>
##  8 Canada      <tibble [34 x 3]>
##  9 Chile       <tibble [34 x 3]>
## 10 Colombia    <tibble [34 x 3]>
## # ... with 190 more rows

Example 3.5:

List columns

This nested data has an interesting structure. The second column, data, is a list, a type of R object that hasnt yet come up in this course that allows complicated objects to be stored within each row. This is because each item of the data column is itself a data frame.

## # A tibble: 200 x 2
##    country     data             
##    <chr>       <list>           
##  1 Afghanistan <tibble [34 x 3]>
##  2 Argentina   <tibble [34 x 3]>
##  3 Australia   <tibble [34 x 3]>
##  4 Belarus     <tibble [34 x 3]>
##  5 Belgium     <tibble [34 x 3]>
##  6 Bolivia     <tibble [34 x 3]>
##  7 Brazil      <tibble [34 x 3]>
##  8 Canada      <tibble [34 x 3]>
##  9 Chile       <tibble [34 x 3]>
## 10 Colombia    <tibble [34 x 3]>
## # ... with 190 more rows

You can use nested$data to access this list column and double brackets to access a particular element. For example, nested$data[[1]] would give you the data frame with Afghanistans voting history (the percent_yes per year), since Afghanistan is the first row of the table.

Instructions

Print the data frame from the data column that contains the data for Brazil.

# All countries are nested besides country
nested <- by_year_country %>%
  nest(-country)

nested$data[[1]]

## # A tibble: 34 x 3
## # Groups:   year [34]
##     year total percent_yes
##    <dbl> <int>       <dbl>
##  1  1947    34       0.382
##  2  1949    51       0.608
##  3  1951    25       0.76 
##  4  1953    26       0.769
##  5  1955    37       0.730
##  6  1957    34       0.529
##  7  1959    54       0.611
##  8  1961    76       0.605
##  9  1963    32       0.781
## 10  1965    40       0.85 
## # ... with 24 more rows

# Print the nested data for Brazil
nested$data[nested$country == 'Brazil']

## [[1]]
## # A tibble: 34 x 3
## # Groups:   year [34]
##     year total percent_yes
##    <dbl> <int>       <dbl>
##  1  1947    38       0.658
##  2  1949    64       0.469
##  3  1951    25       0.64 
##  4  1953    26       0.731
##  5  1955    37       0.730
##  6  1957    34       0.735
##  7  1959    54       0.537
##  8  1961    76       0.553
##  9  1963    32       0.781
## 10  1965    41       0.610
## # ... with 24 more rows
## 
## [[2]]
## NULL
…
In this exercise, you are just undoing the nest() operation. In the next section, youll learn ho w to fit a model in between these nesting and unnesting steps that makes this process useful.

Instructions

Unnest the data list column, so that the table again has one row for each country-year pair, much like by_year_country.

# All countries are nested besides country
nested <- by_year_country %>%
  nest(-country)

# Unnest the data column to return it to its original form
nested %>%
  unnest()

## # A tibble: 4,744 x 4
##    country      year total percent_yes
##    <chr>       <dbl> <int>       <dbl>
##  1 Afghanistan  1947    34       0.382
##  2 Afghanistan  1949    51       0.608
##  3 Afghanistan  1951    25       0.76 
##  4 Afghanistan  1953    26       0.769
##  5 Afghanistan  1955    37       0.730
##  6 Afghanistan  1957    34       0.529
##  7 Afghanistan  1959    54       0.611
##  8 Afghanistan  1961    76       0.605
##  9 Afghanistan  1963    32       0.781
## 10 Afghanistan  1965    40       0.85 
## # ... with 4,734 more rows
…
After nesting, use the map() function within a mutate() to perform a linear regression on each dataset (i.e.each item in the data column in by_year_country) modeling percent_yes as a function of year. Save the results to the model column.

# Load tidyr and purrr
library(tidyr)
library(purrr)

# Perform a linear regression on each item in the data column
by_year_country %>%
  nest(-country) %>%
  mutate(
    model = map(data, ~ lm(percent_yes ~ year, data = .))
  )

## # A tibble: 200 x 3
##    country     data              model 
##    <chr>       <list>            <list>
##  1 Afghanistan <tibble [34 x 3]> <lm>  
##  2 Argentina   <tibble [34 x 3]> <lm>  
##  3 Australia   <tibble [34 x 3]> <lm>  
##  4 Belarus     <tibble [34 x 3]> <lm>  
##  5 Belgium     <tibble [34 x 3]> <lm>  
##  6 Bolivia     <tibble [34 x 3]> <lm>  
##  7 Brazil      <tibble [34 x 3]> <lm>  
##  8 Canada      <tibble [34 x 3]> <lm>  
##  9 Chile       <tibble [34 x 3]> <lm>  
## 10 Colombia    <tibble [34 x 3]> <lm>  
## # ... with 190 more rows
…
Use the map() function to apply the tidy() function to each linear model in the model column, creating a new column called tidied.

# Load the broom package
library(broom)

# Add another mutate that applies tidy() to each model
by_year_country %>%
  nest(-country) %>%
  mutate(
    model = map(data, ~ lm(percent_yes ~ year, data = .)),
    tidied = map(model, tidy)
  )

## # A tibble: 200 x 4
##    country     data              model  tidied          
##    <chr>       <list>            <list> <list>          
##  1 Afghanistan <tibble [34 x 3]> <lm>   <tibble [2 x 5]>
##  2 Argentina   <tibble [34 x 3]> <lm>   <tibble [2 x 5]>
##  3 Australia   <tibble [34 x 3]> <lm>   <tibble [2 x 5]>
##  4 Belarus     <tibble [34 x 3]> <lm>   <tibble [2 x 5]>
##  5 Belgium     <tibble [34 x 3]> <lm>   <tibble [2 x 5]>
##  6 Bolivia     <tibble [34 x 3]> <lm>   <tibble [2 x 5]>
##  7 Brazil      <tibble [34 x 3]> <lm>   <tibble [2 x 5]>
##  8 Canada      <tibble [34 x 3]> <lm>   <tibble [2 x 5]>
##  9 Chile       <tibble [34 x 3]> <lm>   <tibble [2 x 5]>
## 10 Colombia    <tibble [34 x 3]> <lm>   <tibble [2 x 5]>
## # ... with 190 more rows
…
